^C:\USERS\ALBERTOG\DOCUMENTS\VISUAL STUDIO 2013\PROJECTS\CONSOLEAPPLICATION7\CONSOLEAPPLICATION7\DEBUG\CONSOLEAPPLICATION7.OBJ|C:\USERS\ALBERTOG\DOCUMENTS\VISUAL STUDIO 2013\PROJECTS\CONSOLEAPPLICATION7\CONSOLEAPPLICATION7\DEBUG\STDAFX.OBJ
C:\USERS\ALBERTOG\DOCUMENTS\VISUAL STUDIO 2013\PROJECTS\CONSOLEAPPLICATION7\DEBUG\CONSOLEAPPLICATION7.ILK
C:\USERS\ALBERTOG\DOCUMENTS\VISUAL STUDIO 2013\PROJECTS\CONSOLEAPPLICATION7\DEBUG\CONSOLEAPPLICATION7.EXE
C:\USERS\ALBERTOG\DOCUMENTS\VISUAL STUDIO 2013\PROJECTS\CONSOLEAPPLICATION7\DEBUG\CONSOLEAPPLICATION7.PDB
